Behavioral/Behavioral.vcd
$date
  Sat Mar 26 00:32:14 2016
$end
$version
  GHDL v0
$end
$timescale
  1 fs
$end
$var reg 1 ! alarm $end
$var reg 6 " buzzers[5:0] $end
$scope module uut $end
$var reg 1 # alarm $end
$var reg 6 $ buzzers[5:0] $end
$upscope $end
$enddefinitions $end
#0
0!
b000000 "
0#
b000000 $
#10000000
b000001 "
b000001 $
#20000000
b000010 "
b000010 $
#30000000
b000011 "
b000011 $
#40000000
b000100 "
b000100 $
#50000000
b000101 "
b000101 $
#60000000
b000110 "
b000110 $
#70000000
b000111 "
b000111 $
#80000000
b001000 "
b001000 $
#90000000
1!
b001001 "
1#
b001001 $
#100000000
b001010 "
b001010 $
#110000000
b001011 "
b001011 $
#120000000
b001100 "
b001100 $
#130000000
b001101 "
b001101 $
#140000000
b001110 "
b001110 $
#150000000
b001111 "
b001111 $
#160000000
0!
b010000 "
0#
b010000 $
#170000000
1!
b010001 "
1#
b010001 $
#180000000
b010010 "
b010010 $
#190000000
b010011 "
b010011 $
#200000000
b010100 "
b010100 $
#210000000
b010101 "
b010101 $
#220000000
b010110 "
b010110 $
#230000000
b010111 "
b010111 $
#240000000
0!
b011000 "
0#
b011000 $
#250000000
1!
b011001 "
1#
b011001 $
#260000000
b011010 "
b011010 $
#270000000
b011011 "
b011011 $
#280000000
b011100 "
b011100 $
#290000000
b011101 "
b011101 $
#300000000
b011110 "
b011110 $
#310000000
b011111 "
b011111 $
#320000000
0!
b100000 "
0#
b100000 $
#330000000
1!
b100001 "
1#
b100001 $
#340000000
b100010 "
b100010 $
#350000000
b100011 "
b100011 $
#360000000
b100100 "
b100100 $
#370000000
b100101 "
b100101 $
#380000000
b100110 "
b100110 $
#390000000
b100111 "
b100111 $
#400000000
0!
b101000 "
0#
b101000 $
#410000000
1!
b101001 "
1#
b101001 $
#420000000
b101010 "
b101010 $
#430000000
b101011 "
b101011 $
#440000000
b101100 "
b101100 $
#450000000
b101101 "
b101101 $
#460000000
b101110 "
b101110 $
#470000000
b101111 "
b101111 $
#480000000
0!
b110000 "
0#
b110000 $
#490000000
1!
b110001 "
1#
b110001 $
#500000000
b110010 "
b110010 $
#510000000
b110011 "
b110011 $
#520000000
b110100 "
b110100 $
#530000000
b110101 "
b110101 $
#540000000
b110110 "
b110110 $
#550000000
b110111 "
b110111 $
#560000000
0!
b111000 "
0#
b111000 $
#570000000
1!
b111001 "
1#
b111001 $
#580000000
b111010 "
b111010 $
#590000000
b111011 "
b111011 $
#600000000
b111100 "
b111100 $
#610000000
b111101 "
b111101 $
#620000000
b111110 "
b111110 $
#630000000
b111111 "
b111111 $
