Structural/Behavioral.vcd
$date
  Sat Mar 26 00:32:33 2016
$end
$version
  GHDL v0
$end
$timescale
  1 fs
$end
$var reg 1 ! alarm $end
$var reg 6 " buzzers[5:0] $end
$scope module uut $end
$var reg 1 # alarm $end
$var reg 6 $ buzzers[5:0] $end
$var reg 1 % a $end
$var reg 1 & b $end
$var reg 1 ' c $end
$var reg 1 ( d $end
$var reg 1 ) e $end
$var reg 1 * f $end
$var reg 1 + g $end
$var reg 1 , h $end
$var reg 1 - i $end
$var reg 1 . orout1 $end
$var reg 1 / orout2 $end
$var reg 1 0 orout3 $end
$var reg 1 1 orout4 $end
$var reg 1 2 orout5 $end
$var reg 1 3 orout6 $end
$var reg 1 4 orout7 $end
$var reg 1 5 orout8 $end
$scope module a0 $end
$var reg 1 6 c $end
$var reg 1 7 a $end
$var reg 1 8 b $end
$upscope $end
$scope module a1 $end
$var reg 1 9 c $end
$var reg 1 : a $end
$var reg 1 ; b $end
$upscope $end
$scope module a2 $end
$var reg 1 < c $end
$var reg 1 = a $end
$var reg 1 > b $end
$upscope $end
$scope module a3 $end
$var reg 1 ? c $end
$var reg 1 @ a $end
$var reg 1 A b $end
$upscope $end
$scope module a4 $end
$var reg 1 B c $end
$var reg 1 C a $end
$var reg 1 D b $end
$upscope $end
$scope module a5 $end
$var reg 1 E c $end
$var reg 1 F a $end
$var reg 1 G b $end
$upscope $end
$scope module a6 $end
$var reg 1 H c $end
$var reg 1 I a $end
$var reg 1 J b $end
$upscope $end
$scope module a7 $end
$var reg 1 K c $end
$var reg 1 L a $end
$var reg 1 M b $end
$upscope $end
$scope module a8 $end
$var reg 1 N c $end
$var reg 1 O a $end
$var reg 1 P b $end
$upscope $end
$scope module o1 $end
$var reg 1 Q c $end
$var reg 1 R a $end
$var reg 1 S b $end
$upscope $end
$scope module o2 $end
$var reg 1 T c $end
$var reg 1 U a $end
$var reg 1 V b $end
$upscope $end
$scope module o3 $end
$var reg 1 W c $end
$var reg 1 X a $end
$var reg 1 Y b $end
$upscope $end
$scope module o4 $end
$var reg 1 Z c $end
$var reg 1 [ a $end
$var reg 1 \ b $end
$upscope $end
$scope module o5 $end
$var reg 1 ] c $end
$var reg 1 ^ a $end
$var reg 1 _ b $end
$upscope $end
$scope module o6 $end
$var reg 1 ` c $end
$var reg 1 a a $end
$var reg 1 b b $end
$upscope $end
$scope module o7 $end
$var reg 1 c c $end
$var reg 1 d a $end
$var reg 1 e b $end
$upscope $end
$scope module final $end
$var reg 1 f c $end
$var reg 1 g a $end
$var reg 1 h b $end
$upscope $end
$upscope $end
$enddefinitions $end
#0
0!
b000000 "
0#
b000000 $
0%
0&
0'
0(
0)
0*
0+
0,
0-
0.
0/
00
01
02
03
04
U5
06
07
08
09
0:
0;
0<
0=
0>
0?
0@
0A
0B
0C
0D
0E
0F
0G
0H
0I
0J
0K
0L
0M
0N
0O
0P
0Q
0R
0S
0T
0U
0V
0W
0X
0Y
0Z
0[
0\
0]
0^
0_
0`
0a
0b
0c
0d
0e
0f
0g
0h
#10000000
b000001 "
b000001 $
1>
1G
1P
#20000000
b000010 "
b000010 $
1;
0>
1D
0G
1M
0P
#30000000
b000011 "
b000011 $
1>
1G
1P
#40000000
b000100 "
b000100 $
18
0;
0>
1A
0D
0G
1J
0M
0P
#50000000
b000101 "
b000101 $
1>
1G
1P
#60000000
b000110 "
b000110 $
1;
0>
1D
0G
1M
0P
#70000000
b000111 "
b000111 $
1>
1G
1P
#80000000
b001000 "
b001000 $
08
0;
0>
0A
0D
0G
1I
0J
1L
0M
1O
0P
#90000000
1!
b001001 "
1#
b001001 $
1-
1>
1G
1N
1P
1f
1h
#100000000
1!
b001010 "
1#
b001010 $
1,
0-
11
13
14
1;
0>
1D
0G
1K
1M
0N
0P
1Z
1\
1`
1b
1c
1e
1f
1g
0h
#110000000
b001011 "
b001011 $
1-
1>
1G
1N
1P
1h
#120000000
b001100 "
b001100 $
1+
0,
0-
18
0;
0>
1A
0D
0G
1H
1J
0K
0M
0N
0P
1[
0\
0h
#130000000
b001101 "
b001101 $
1-
1>
1G
1N
1P
1h
#140000000
b001110 "
b001110 $
1,
0-
1;
0>
1D
0G
1K
1M
0N
0P
1\
0h
#150000000
b001111 "
b001111 $
1-
1>
1G
1N
1P
1h
#160000000
0!
b010000 "
0#
b010000 $
0+
0,
0-
01
03
04
08
0;
0>
1@
0A
1C
0D
1F
0G
0H
0I
0J
0K
0L
0M
0N
0O
0P
0Z
0[
0\
0`
0b
0c
0e
0f
0g
0h
#170000000
1!
b010001 "
1#
b010001 $
1*
10
13
14
1>
1E
1G
1P
1W
1Y
1`
1a
1c
1e
1f
1g
#180000000
b010010 "
b010010 $
1)
0*
1;
0>
1B
1D
0E
0G
1M
0P
1X
0Y
#190000000
b010011 "
b010011 $
1*
1>
1E
1G
1P
1Y
#200000000
b010100 "
b010100 $
1(
0)
0*
1/
00
12
03
18
0;
0>
1?
1A
0B
0D
0E
0G
1J
0M
0P
1T
1V
0W
0X
0Y
1]
1_
0`
0a
1d
0e
#210000000
b010101 "
b010101 $
1*
10
13
1>
1E
1G
1P
1W
1Y
1`
1a
1e
#220000000
b010110 "
b010110 $
1)
0*
1;
0>
1B
1D
0E
0G
1M
0P
1X
0Y
#230000000
b010111 "
b010111 $
1*
1>
1E
1G
1P
1Y
#240000000
0!
b011000 "
0#
b011000 $
0(
0)
0*
0/
00
02
03
04
08
0;
0>
0?
0A
0B
0D
0E
0G
1I
0J
1L
0M
1O
0P
0T
0V
0W
0X
0Y
0]
0_
0`
0a
0c
0d
0e
0f
0g
#250000000
1!
b011001 "
1#
b011001 $
1*
1-
10
13
14
1>
1E
1G
1N
1P
1W
1Y
1`
1a
1c
1e
1f
1g
1h
#260000000
b011010 "
b011010 $
1)
0*
1,
0-
11
1;
0>
1B
1D
0E
0G
1K
1M
0N
0P
1X
0Y
1Z
1\
1b
0h
#270000000
b011011 "
b011011 $
1*
1-
1>
1E
1G
1N
1P
1Y
1h
#280000000
b011100 "
b011100 $
1(
0)
0*
1+
0,
0-
1/
00
12
18
0;
0>
1?
1A
0B
0D
0E
0G
1H
1J
0K
0M
0N
0P
1T
1V
0W
0X
0Y
1[
0\
1]
1_
0a
1d
0h
#290000000
b011101 "
b011101 $
1*
1-
10
1>
1E
1G
1N
1P
1W
1Y
1a
1h
#300000000
b011110 "
b011110 $
1)
0*
1,
0-
1;
0>
1B
1D
0E
0G
1K
1M
0N
0P
1X
0Y
1\
0h
#310000000
b011111 "
b011111 $
1*
1-
1>
1E
1G
1N
1P
1Y
1h
#320000000
0!
b100000 "
0#
b100000 $
0(
0)
0*
0+
0,
0-
0/
00
01
02
03
04
17
08
1:
0;
1=
0>
0?
0@
0A
0B
0C
0D
0E
0F
0G
0H
0I
0J
0K
0L
0M
0N
0O
0P
0T
0V
0W
0X
0Y
0Z
0[
0\
0]
0_
0`
0a
0b
0c
0d
0e
0f
0g
0h
#330000000
1!
b100001 "
1#
b100001 $
1'
1/
12
14
1<
1>
1G
1P
1T
1U
1]
1_
1c
1d
1f
1g
#340000000
b100010 "
b100010 $
1&
0'
1.
0/
19
1;
0<
0>
1D
0G
1M
0P
1Q
1S
0T
0U
1^
0_
#350000000
b100011 "
b100011 $
1'
1/
1<
1>
1G
1P
1T
1U
1_
#360000000
b100100 "
b100100 $
1%
0&
0'
0/
16
18
09
0;
0<
0>
1A
0D
0G
1J
0M
0P
1R
0S
0T
0U
0_
#370000000
b100101 "
b100101 $
1'
1/
1<
1>
1G
1P
1T
1U
1_
#380000000
b100110 "
b100110 $
1&
0'
0/
19
1;
0<
0>
1D
0G
1M
0P
1S
0T
0U
0_
#390000000
b100111 "
b100111 $
1'
1/
1<
1>
1G
1P
1T
1U
1_
#400000000
0!
b101000 "
0#
b101000 $
0%
0&
0'
0.
0/
02
04
06
08
09
0;
0<
0>
0A
0D
0G
1I
0J
1L
0M
1O
0P
0Q
0R
0S
0T
0U
0]
0^
0_
0c
0d
0f
0g
#410000000
1!
b101001 "
1#
b101001 $
1'
1-
1/
12
14
1<
1>
1G
1N
1P
1T
1U
1]
1_
1c
1d
1f
1g
1h
#420000000
b101010 "
b101010 $
1&
0'
1,
0-
1.
0/
11
13
19
1;
0<
0>
1D
0G
1K
1M
0N
0P
1Q
1S
0T
0U
1Z
1\
1^
0_
1`
1b
1e
0h
#430000000
b101011 "
b101011 $
1'
1-
1/
1<
1>
1G
1N
1P
1T
1U
1_
1h
#440000000
b101100 "
b101100 $
1%
0&
0'
1+
0,
0-
0/
16
18
09
0;
0<
0>
1A
0D
0G
1H
1J
0K
0M
0N
0P
1R
0S
0T
0U
1[
0\
0_
0h
#450000000
b101101 "
b101101 $
1'
1-
1/
1<
1>
1G
1N
1P
1T
1U
1_
1h
#460000000
b101110 "
b101110 $
1&
0'
1,
0-
0/
19
1;
0<
0>
1D
0G
1K
1M
0N
0P
1S
0T
0U
1\
0_
0h
#470000000
b101111 "
b101111 $
1'
1-
1/
1<
1>
1G
1N
1P
1T
1U
1_
1h
#480000000
0!
b110000 "
0#
b110000 $
0%
0&
0'
0+
0,
0-
0.
0/
01
02
03
04
06
08
09
0;
0<
0>
1@
0A
1C
0D
1F
0G
0H
0I
0J
0K
0L
0M
0N
0O
0P
0Q
0R
0S
0T
0U
0Z
0[
0\
0]
0^
0_
0`
0b
0c
0d
0e
0f
0g
0h
#490000000
1!
b110001 "
1#
b110001 $
1'
1*
1/
10
12
13
14
1<
1>
1E
1G
1P
1T
1U
1W
1Y
1]
1_
1`
1a
1c
1d
1e
1f
1g
#500000000
b110010 "
b110010 $
1&
0'
1)
0*
1.
0/
19
1;
0<
0>
1B
1D
0E
0G
1M
0P
1Q
1S
0T
0U
1X
0Y
1^
0_
#510000000
b110011 "
b110011 $
1'
1*
1/
1<
1>
1E
1G
1P
1T
1U
1Y
1_
#520000000
b110100 "
b110100 $
1%
0&
0'
1(
0)
0*
00
03
16
18
09
0;
0<
0>
1?
1A
0B
0D
0E
0G
1J
0M
0P
1R
0S
0U
1V
0W
0X
0Y
0`
0a
0e
#530000000
b110101 "
b110101 $
1'
1*
10
13
1<
1>
1E
1G
1P
1U
1W
1Y
1`
1a
1e
#540000000
b110110 "
b110110 $
1&
0'
1)
0*
19
1;
0<
0>
1B
1D
0E
0G
1M
0P
1S
0U
1X
0Y
#550000000
b110111 "
b110111 $
1'
1*
1<
1>
1E
1G
1P
1U
1Y
#560000000
0!
b111000 "
0#
b111000 $
0%
0&
0'
0(
0)
0*
0.
0/
00
02
03
04
06
08
09
0;
0<
0>
0?
0A
0B
0D
0E
0G
1I
0J
1L
0M
1O
0P
0Q
0R
0S
0T
0U
0V
0W
0X
0Y
0]
0^
0_
0`
0a
0c
0d
0e
0f
0g
#570000000
1!
b111001 "
1#
b111001 $
1'
1*
1-
1/
10
12
13
14
1<
1>
1E
1G
1N
1P
1T
1U
1W
1Y
1]
1_
1`
1a
1c
1d
1e
1f
1g
1h
#580000000
b111010 "
b111010 $
1&
0'
1)
0*
1,
0-
1.
0/
11
19
1;
0<
0>
1B
1D
0E
0G
1K
1M
0N
0P
1Q
1S
0T
0U
1X
0Y
1Z
1\
1^
0_
1b
0h
#590000000
b111011 "
b111011 $
1'
1*
1-
1/
1<
1>
1E
1G
1N
1P
1T
1U
1Y
1_
1h
#600000000
b111100 "
b111100 $
1%
0&
0'
1(
0)
0*
1+
0,
0-
00
16
18
09
0;
0<
0>
1?
1A
0B
0D
0E
0G
1H
1J
0K
0M
0N
0P
1R
0S
0U
1V
0W
0X
0Y
1[
0\
0a
0h
#610000000
b111101 "
b111101 $
1'
1*
1-
10
1<
1>
1E
1G
1N
1P
1U
1W
1Y
1a
1h
#620000000
b111110 "
b111110 $
1&
0'
1)
0*
1,
0-
19
1;
0<
0>
1B
1D
0E
0G
1K
1M
0N
0P
1S
0U
1X
0Y
1\
0h
#630000000
b111111 "
b111111 $
1'
1*
1-
1<
1>
1E
1G
1N
1P
1U
1Y
1h
